component	engine
s	s
eng_bezelbok_kessel_runner	tieadvanced_engine_s01:
eng_corellian_cruiser_grade_mk1	tieadvanced_engine_s01:
eng_corellian_cruiser_grade_mk2	tieadvanced_engine_s01:
eng_corellian_deluxe_cruiser_grade_mk1	tieadvanced_engine_s01:
eng_crafted_incom_fusialthrust	tieadvanced_engine_s01:
eng_crafted_novaldex_eventhorizon	tieadvanced_engine_s01:
eng_crafted_qualdex_kyromaster	tieadvanced_engine_s01:
eng_cygnus_hd3	tieadvanced_engine_s01:
eng_cygnus_hd7	tieadvanced_engine_s01:
eng_cygnus_hd8	tieadvanced_engine_s01:
eng_cygnus_hd_5	tieadvanced_engine_s01:
eng_cygnus_hdx	tieadvanced_engine_s01:
eng_damorian_rx7	tieadvanced_engine_s01:
eng_freitek_dual_jet	tieadvanced_engine_s01:
eng_gallofree_advanced	tieadvanced_engine_s01:
eng_gallofree_jx2	tieadvanced_engine_s01:
eng_gallofree_jx3	tieadvanced_engine_s01:
eng_h17_singularity	tieadvanced_engine_s01:
eng_haor_chall_old_engine	tieadvanced_engine_s01:
eng_incom_advanced	tieadvanced_engine_s01:
eng_incom_advanced_fusialthrust	tieadvanced_engine_s01:
eng_incom_e16	tieadvanced_engine_s01:
eng_incom_elite	tieadvanced_engine_s01:
eng_incom_fusialthrust	tieadvanced_engine_s01:
eng_incom_fusialthrust_2	tieadvanced_engine_s01:
eng_incom_heavy_fusialthrust	tieadvanced_engine_s01:
eng_incom_improved_fusialthrust_2	tieadvanced_engine_s01:
eng_incom_light_fusialthrust	tieadvanced_engine_s01:
eng_koensayr_advanced	tieadvanced_engine_s01:
eng_koensayr_dual_small_ionjet	tieadvanced_engine_s01:
eng_koensayr_elite	tieadvanced_engine_s01:
eng_koensayr_enhanced_dual_small_ionjet	tieadvanced_engine_s01:
eng_koensayr_heavy_ionjet	tieadvanced_engine_s01:
eng_koensayr_ionjet	tieadvanced_engine_s01:
eng_koensayr_small_ionjet	tieadvanced_engine_s01:
eng_koensayr_tuned_small_ionjet	tieadvanced_engine_s01:
eng_kongar_defender	tieadvanced_engine_s01:
eng_kse_a2x	tieadvanced_engine_s01:
eng_kse_a5x	tieadvanced_engine_s01:
eng_kse_a7x	tieadvanced_engine_s01:
eng_kse_a8x	tieadvanced_engine_s01:
eng_kse_advanced	tieadvanced_engine_s01:
eng_kse_elite	tieadvanced_engine_s01:
eng_kse_improved_a2x	tieadvanced_engine_s01:
eng_kuat_a9x	tieadvanced_engine_s01:
eng_kuat_f31	tieadvanced_engine_s01:
eng_kuat_tc40	tieadvanced_engine_s01:
eng_mandal_advanced	tieadvanced_engine_s01:
eng_mandal_elite	tieadvanced_engine_s01:
eng_mandal_enhanced_heavy	tieadvanced_engine_s01:
eng_mandal_firestorm	tieadvanced_engine_s01:
eng_mandal_firestorm_2	tieadvanced_engine_s01:
eng_mandal_heavy	tieadvanced_engine_s01:
eng_mandal_x37_vandal	tieadvanced_engine_s01:
eng_mandal_x57_vandal	tieadvanced_engine_s01:
eng_mission_reward_imperial_cygnus_megadrive	tieadvanced_engine_s01:
eng_mission_reward_neutral_haor_chall_military	tieadvanced_engine_s01:
eng_mission_reward_neutral_mandal_inferno	tieadvanced_engine_s01:
eng_mission_reward_rebel_incom_military	tieadvanced_engine_s01:
eng_mk1	tieadvanced_engine_s01:
eng_mk2	tieadvanced_engine_s01:
eng_mk3	tieadvanced_engine_s01:
eng_mk4	tieadvanced_engine_s01:
eng_mk5	tieadvanced_engine_s01:
eng_moncal_charged_standard	tieadvanced_engine_s01:
eng_moncal_enhanced_light	tieadvanced_engine_s01:
eng_moncal_heavy	tieadvanced_engine_s01:
eng_moncal_ifs32	tieadvanced_engine_s01:
eng_moncal_ifs64	tieadvanced_engine_s01:
eng_moncal_improved_heavy	tieadvanced_engine_s01:
eng_moncal_light	tieadvanced_engine_s01:
eng_moncal_standard	tieadvanced_engine_s01:
eng_novaldex_advanced	tieadvanced_engine_s01:
eng_novaldex_eventhorizon	tieadvanced_engine_s01:
eng_novaldex_light_eventhorizon	tieadvanced_engine_s01:
eng_novaldex_singularity	tieadvanced_engine_s01:
eng_novaldex_x12	tieadvanced_engine_s01:
eng_novaldex_x6	tieadvanced_engine_s01:
eng_novaldex_x7	tieadvanced_engine_s01:
eng_novaldex_x9	tieadvanced_engine_s01:
eng_nubian_221	tieadvanced_engine_s01:
eng_nubian_221_racing_mod	tieadvanced_engine_s01:
eng_prototype	tieadvanced_engine_s01:
eng_qualdex_a10	tieadvanced_engine_s01:
eng_qualdex_a13	tieadvanced_engine_s01:
eng_qualdex_advanced	tieadvanced_engine_s01:
eng_qualdex_b10	tieadvanced_engine_s01:
eng_qualdex_elite	tieadvanced_engine_s01:
eng_qualdex_igt	tieadvanced_engine_s01:
eng_qualdex_kyromaster	tieadvanced_engine_s01:
eng_qualdex_small_kyromaster	tieadvanced_engine_s01:
eng_quantum_ion_drive	tieadvanced_engine_s01:
eng_rendili_demon_mk1	tieadvanced_engine_s01:
eng_rendili_elite	tieadvanced_engine_s01:
eng_rss_advanced	tieadvanced_engine_s01:
eng_rss_elite	tieadvanced_engine_s01:
eng_rss_imperial_skyrunner	tieadvanced_engine_s01:
eng_rss_imperial_skyrunner_2	tieadvanced_engine_s01:
eng_rss_imperial_skyrunner_3	tieadvanced_engine_s01:
eng_rss_imperial_skyrunner_4	tieadvanced_engine_s01:
eng_sds_imperial_1	tieadvanced_engine_s01:
eng_sds_imperial_2	tieadvanced_engine_s01:
eng_sds_limited_imperial_1	tieadvanced_engine_s01:
eng_seinar_ps56	tieadvanced_engine_s01:
eng_sfs_advanced	tieadvanced_engine_s01:
eng_sfs_elite	tieadvanced_engine_s01:
eng_sfs_imperial_1	tieadvanced_engine_s01:
eng_sfs_imperial_2	tieadvanced_engine_s01:
eng_sfs_imperial_3	tieadvanced_engine_s01:
eng_sfs_imperial_4	tieadvanced_engine_s01:
eng_sfs_imperial_5	tieadvanced_engine_s01:
eng_sfs_modified_imperial_3	tieadvanced_engine_s01:
eng_sfs_performance_imperial_1	tieadvanced_engine_s01:
eng_sfs_tuned_imperial_2	tieadvanced_engine_s01:
eng_sorosuub_l_337_ion_engine	tieadvanced_engine_s01:
eng_sorosuub_tuned_l_337_ion_engine	tieadvanced_engine_s01:
eng_sorosuub_u83r_ion_drive	tieadvanced_engine_s01:
eng_subpro_light_engines	tieadvanced_engine_s01:
eng_surronian_a2	tieadvanced_engine_s01:
eng_surronian_a25	tieadvanced_engine_s01:
eng_ubrikkian_n2	tieadvanced_engine_s01:
eng_reward_kuat_elite	tieadvanced_engine_s01:
eng_nova_01	tieadvanced_engine_s01:
eng_orion_01	tieadvanced_engine_s01:
collection_reward_engine_01_mk1	tieadvanced_engine_s01:
collection_reward_engine_01_mk2	tieadvanced_engine_s01:
collection_reward_engine_01_mk3	tieadvanced_engine_s01:
collection_reward_engine_01_mk4	tieadvanced_engine_s01:
collection_reward_engine_01_mk5	tieadvanced_engine_s01:
eng_t86_shooting_star	tieadvanced_engine_s01:
eng_kuat_m24	tieadvanced_engine_s01:
